Homework1
…
theme_set(theme_classic())

Problem 1

1.0 Data Import

age <- read_excel("age_stats315B.xlsx") 

age <- age %>%
  mutate_if(is.character, as.numeric) %>% # Changing all values to numeric
  janitor::clean_names()

age

## # A tibble: 8,710 x 14
##      age occup type_home   sex mar_stat   edu income live_ba dual_inc persons
##    <dbl> <dbl>     <dbl> <dbl>    <dbl> <dbl>  <dbl>   <dbl>    <dbl>   <dbl>
##  1     5     5         1     2        1     4      9       5        3       3
##  2     5     5         1     1        1     5      9       5        3       5
##  3     3     1         3     2        1     5      9       5        2       3
##  4     1     6         1     2        5     2      1       5        1       4
##  5     1     6         1     2        5     2      1       3        1       4
##  6     6     8         1     1        1     4      8       5        3       2
##  7     2     9         3     1        5     3      1       4        1       3
##  8     3     3         3     1        3     4      6       5        1       1
##  9     6     8         3     1        1     3      2       5        3       3
## 10     7     8         3     1        1     4      4       4        3       2
## #  with 8,700 more rows, and 4 more variables: under18 <dbl>,
## #   house_stat <dbl>, ethnic <dbl>, lang <dbl>
…
